127.0.0.1 - - [19/Jan/2015:12:24:44 +0200] "GET / HTTP/1.1" 200 11217
127.0.0.1 - - [19/Jan/2015:12:24:44 +0200] "GET /tomcat.css HTTP/1.1" 404 971
127.0.0.1 - - [19/Jan/2015:12:24:44 +0200] "GET /tomcat.png HTTP/1.1" 200 5103
127.0.0.1 - - [19/Jan/2015:12:24:44 +0200] "GET /favicon.ico HTTP/1.1" 200 21630
127.0.0.1 - - [19/Jan/2015:12:24:45 +0200] "GET / HTTP/1.1" 200 11217
127.0.0.1 - - [19/Jan/2015:12:24:45 +0200] "GET /tomcat.css HTTP/1.1" 404 971
127.0.0.1 - - [19/Jan/2015:12:24:45 +0200] "GET /tomcat.png HTTP/1.1" 304 -
127.0.0.1 - - [19/Jan/2015:12:24:46 +0200] "GET / HTTP/1.1" 200 11217
127.0.0.1 - - [19/Jan/2015:12:24:46 +0200] "GET /tomcat.css HTTP/1.1" 404 971
127.0.0.1 - - [19/Jan/2015:12:24:46 +0200] "GET /tomcat.png HTTP/1.1" 304 -
127.0.0.1 - - [19/Jan/2015:12:24:47 +0200] "GET / HTTP/1.1" 200 11217
127.0.0.1 - - [19/Jan/2015:12:24:47 +0200] "GET /tomcat.css HTTP/1.1" 404 971
127.0.0.1 - - [19/Jan/2015:12:24:47 +0200] "GET /tomcat.png HTTP/1.1" 304 -
127.0.0.1 - - [19/Jan/2015:12:27:37 +0200] "GET / HTTP/1.1" 200 11217
127.0.0.1 - - [19/Jan/2015:12:27:37 +0200] "GET /tomcat.css HTTP/1.1" 404 971
127.0.0.1 - - [19/Jan/2015:12:29:39 +0200] "GET /PrepareCrawlers/Crawl?bing=true&gplus=true&youtube=true&query_list=%5B%22Acute%20Radiation%20Syndrome%22,%22operational%20control%20point%22%5D&crawl_name=crawler3 HTTP/1.1" 200 112
127.0.0.1 - - [19/Jan/2015:12:29:52 +0200] "GET /PrepareCrawlers/insert?queries=%5B{%22query_term%22:%22dosemeter%22,%20%22language_id%22:2},{%22query_term%22:%22dosemeter%22,%20%22language_id%22:2},{%22query_term%22:%22dosemeter%22,%20%22language_id%22:3}%5D HTTP/1.1" 200 150
127.0.0.1 - - [19/Jan/2015:12:31:58 +0200] "GET /PrepareCrawlers/Crawl?bing=true&gplus=true&youtube=true&query_list=%5B%22Acute%20Radiation%20Syndrome%22,%22operational%20control%20point%22,%22dosemeter%22%5D&crawl_name=crawler3 HTTP/1.1" 200 215
